…
``` r
data <- data %>% select(c("Name", "Votes"))
data$Votes <- as.numeric(data$Votes)
data$Name <- gsub("X-", "", data$Name)
data
```

    ## # A tibble: 28 × 2
    ##    Name            Votes
    ##    <chr>           <dbl>
    ##  1 Ichiro Suzuki     393
    ##  2 CC Sabathia       342
    ##  3 Billy Wagner      325
    ##  4 Carlos Beltrán    277
    ##  5 Andruw Jones      261
    ##  6 Chase Utley       157
    ##  7 Alex Rodriguez    146
    ##  8 Manny Ramirez     135
    ##  9 Andy Pettitte     110
    ## 10 Félix Hernández    81
    ## # ℹ 18 more rows
…
    ## # A tibble: 0 × 2
    ## # ℹ 2 variables: Name <chr>, Votes <dbl>

``` r
data <- data %>% left_join(
  peopleneeded %>% select(Name, playerID), 
  by = "Name")

data <- data %>% filter(playerID != "rodrifr04")
data
```

    ## # A tibble: 28 × 3
    ##    Name            Votes playerID 
    ##    <chr>           <dbl> <chr>    
    ##  1 Ichiro Suzuki     393 suzukic01
    ##  2 CC Sabathia       342 sabatcc01
    ##  3 Billy Wagner      325 wagnebi02
    ##  4 Carlos Beltran    277 beltrca01
    ##  5 Andruw Jones      261 jonesan01
    ##  6 Chase Utley       157 utleych01
    ##  7 Alex Rodriguez    146 rodrial01
    ##  8 Manny Ramirez     135 ramirma02
    ##  9 Andy Pettitte     110 pettian01
    ## 10 Felix Hernandez    81 hernafe02
    ## # ℹ 18 more rows
…
data
```

    ## # A tibble: 28 × 9
    ##    votes playerID  yearID votedBy ballots needed inducted category needed_note
    ##    <dbl> <chr>      <dbl> <chr>     <dbl>  <dbl> <chr>    <chr>    <lgl>      
    ##  1   393 suzukic01   2025 BBWAA       394    296 Y        Player   NA         
    ##  2   342 sabatcc01   2025 BBWAA       394    296 Y        Player   NA         
    ##  3   325 wagnebi02   2025 BBWAA       394    296 Y        Player   NA         
    ##  4   277 beltrca01   2025 BBWAA       394    296 N        Player   NA         
    ##  5   261 jonesan01   2025 BBWAA       394    296 N        Player   NA         
    ##  6   157 utleych01   2025 BBWAA       394    296 N        Player   NA         
    ##  7   146 rodrial01   2025 BBWAA       394    296 N        Player   NA         
    ##  8   135 ramirma02   2025 BBWAA       394    296 N        Player   NA         
    ##  9   110 pettian01   2025 BBWAA       394    296 N        Player   NA         
    ## 10    81 hernafe02   2025 BBWAA       394    296 N        Player   NA         
    ## # ℹ 18 more rows
…
